Oh dear 

Brian,
Oh Dear, I think Therco are not going to like this – see below highlighted.
I will respond to them with the below.

Dennis
No comments on the attached SDR however we are waiting for hard copies and some natives.
Hard copies manuals needed
Doc. Number
Client Doc. Number
Rev.
Title
COPIES
CF00-32-AM00016A-R70-00001
CF00-AM-4100001255-R70-00001
INSTALLATION AND COMMISSIONING MANUAL 025-X001
2 HARD COPIES NEEDED
CF00-32-AM00016A-R70-00002
CF00-AM-4100001255-R70-00002
INSTALLATION AND COMMISSIONING MANUAL 026A-X001 & 026B-X001
2 HARD COPIES NEEDED
CF00-32-AM00016A-R70-00003
CF00-AM-4100001255-R70-00003
INSTALLATION AND COMMISSIONING MANUAL 026A-X002 & 026B-X002
2 HARD COPIES NEEDED
Natives required these were provided but we are unable to open these AutoCAD files as these have been provided in a more recent version of AutoCAD then we have available, they will need to be convert to AutoCAD 2007 or compatible.
DOC_NO
REV_NO
CF00-32-AM00016A-B01-00004-001
CF00-32-AM00016A-B01-00005-001
CF00-32-AM00016A-B01-00006-001
CF00-32-AM00016A-B01-00007-001
CF00-32-AM00016A-B01-00010-001
CF00-32-AM00016A-B01-00011-001
CF00-32-AM00016A-C19-00001-001
CF00-32-AM00016A-D05-00001-001
CF00-32-AM00016A-D05-00003-001
CF00-32-AM00016A-D05-00005-001
CF00-32-AM00016A-D05-00005-002
CF00-32-AM00016A-D05-00007-001
CF00-32-AM00016A-D05-00008-001
CF00-32-AM00016A-D05-00010-001
CF00-32-AM00016A-D05-00013-001

Dear All,
Supplier documents Issued for Review / Information.
The following Supplier documents have been uploaded to Fusion. Please note the following return dates
REQUISITION ENGINEER – DENNIS GRICE
18-03-2015 (8 working days)
NB. REVIEW IS NOT REQUIRED FROM RECIPIENTS LISTED FOR INFORMATION. COMMENTS MAY STILL BE SUBMITTED TO THE REQUISITION ENGINEER AS PER THE WORK INSTRUCTION
https://docfusionlon.amec.com/URLServer/?Server=ixa-aps24.3000 <https://docfusionlon.amec.com/URLServer/?Server=ixa-aps24.3000&ID=69e8e9833326cbf513c227896bf9a5e5546f11b9> &ID=69e8e9833326cbf513c227896bf9a5e5546f11b9

