Dear All,
Supplier documents Issued for Review / Information.
The following Supplier documents have been uploaded to Fusion. Please note the following return dates
REQUISITION ENGINEER – SIMON SMITH
26-MAR-2014  (8 working days)
NB. REVIEW IS NOT REQUIRED FROM RECIPIENTS LISTED FOR INFORMATION. COMMENTS MAY STILL BE SUBMITTED TO THE REQUISITION ENGINEER AS PER THE WORK INSTRUCTION
https://docfusionlon.amec.com/URLServer/?Server=ixa-aps24.3000 <https://docfusionlon.amec.com/URLServer/?Server=ixa-aps24.3000&ID=eab9058d074612f2510055aa9003e13d6bae95f3> &ID=eab9058d074612f2510055aa9003e13d6bae95f3 
https://docfusionlon.amec.com/URLServer/?Server=ixa-aps24.3000 <https://docfusionlon.amec.com/URLServer/?Server=ixa-aps24.3000&ID=b3426104517a4aacaf1de69ad7d1f04e6d0604ed> &ID=b3426104517a4aacaf1de69ad7d1f04e6d0604ed 
https://docfusionlon.amec.com/URLServer/?Server=ixa-aps24.3000 <https://docfusionlon.amec.com/URLServer/?Server=ixa-aps24.3000&ID=500f0064772854f089b7c49c4e77629fc3070983> &ID=500f0064772854f089b7c49c4e77629fc3070983 
https://docfusionlon.amec.com/URLServer/?Server=ixa-aps24.3000 <https://docfusionlon.amec.com/URLServer/?Server=ixa-aps24.3000&ID=cb6ddfaed25eca103d945923c0666be45ffe1fa1> &ID=cb6ddfaed25eca103d945923c0666be45ffe1fa1 
https://docfusionlon.amec.com/URLServer/?Server=ixa-aps24.3000 <https://docfusionlon.amec.com/URLServer/?Server=ixa-aps24.3000&ID=01c1e1d35a13a3043f8199ebc2ad0b6e8bde6bec> &ID=01c1e1d35a13a3043f8199ebc2ad0b6e8bde6bec 
https://docfusionlon.amec.com/URLServer/?Server=ixa-aps24.3000 <https://docfusionlon.amec.com/URLServer/?Server=ixa-aps24.3000&ID=ff3c2c92d2f33be32ac1c109d6c668491ac48ff6> &ID=ff3c2c92d2f33be32ac1c109d6c668491ac48ff6 
https://docfusionlon.amec.com/URLServer/?Server=ixa-aps24.3000 <https://docfusionlon.amec.com/URLServer/?Server=ixa-aps24.3000&ID=cbbed9b4298732ab138b49e538dad50f023bd7a6> &ID=cbbed9b4298732ab138b49e538dad50f023bd7a6 
https://docfusionlon.amec.com/URLServer/?Server=ixa-aps24.3000 <https://docfusionlon.amec.com/URLServer/?Server=ixa-aps24.3000&ID=d670d7b923f8551c4429aa88c78c88212e4355a1> &ID=d670d7b923f8551c4429aa88c78c88212e4355a1 
https://docfusionlon.amec.com/URLServer/?Server=ixa-aps24.3000 <https://docfusionlon.amec.com/URLServer/?Server=ixa-aps24.3000&ID=9bc43b044db426499f748a2ff4da9d1472e5d24d> &ID=9bc43b044db426499f748a2ff4da9d1472e5d24d 
https://docfusionlon.amec.com/URLServer/?Server=ixa-aps24.3000 <https://docfusionlon.amec.com/URLServer/?Server=ixa-aps24.3000&ID=d751b2ae25797ca2ddf0e126e1a119a24bc6f3ca> &ID=d751b2ae25797ca2ddf0e126e1a119a24bc6f3ca 
https://docfusionlon.amec.com/URLServer/?Server=ixa-aps24.3000 <https://docfusionlon.amec.com/URLServer/?Server=ixa-aps24.3000&ID=9022998a8edbb635082dcfc6a66aaf0fce41cb30> &ID=9022998a8edbb635082dcfc6a66aaf0fce41cb30 
https://docfusionlon.amec.com/URLServer/?Server=ixa-aps24.3000 <https://docfusionlon.amec.com/URLServer/?Server=ixa-aps24.3000&ID=01ec741d72d74a83532757c3ccc407e660b8cbe8> &ID=01ec741d72d74a83532757c3ccc407e660b8cbe8 
https://docfusionlon.amec.com/URLServer/?Server=ixa-aps24.3000 <https://docfusionlon.amec.com/URLServer/?Server=ixa-aps24.3000&ID=e4a0d6fc23902f5dbd9a51ad6fd7fbf7e00bad53> &ID=e4a0d6fc23902f5dbd9a51ad6fd7fbf7e00bad53 
https://docfusionlon.amec.com/URLServer/?Server=ixa-aps24.3000 <https://docfusionlon.amec.com/URLServer/?Server=ixa-aps24.3000&ID=bc345940e52c6c2f713729b49886a5530988e505> &ID=bc345940e52c6c2f713729b49886a5530988e505 
https://docfusionlon.amec.com/URLServer/?Server=ixa-aps24.3000 <https://docfusionlon.amec.com/URLServer/?Server=ixa-aps24.3000&ID=91d1b295aaa0ca7a447014fc07405d25d7f8ea7c> &ID=91d1b295aaa0ca7a447014fc07405d25d7f8ea7c 
https://docfusionlon.amec.com/URLServer/?Server=ixa-aps24.3000 <https://docfusionlon.amec.com/URLServer/?Server=ixa-aps24.3000&ID=531490f4b0e9158cc47b51fff34c656044f90da2> &ID=531490f4b0e9158cc47b51fff34c656044f90da2 
https://docfusionlon.amec.com/URLServer/?Server=ixa-aps24.3000 <https://docfusionlon.amec.com/URLServer/?Server=ixa-aps24.3000&ID=9465af830ed435d890fa76b9509fbc6b28122479> &ID=9465af830ed435d890fa76b9509fbc6b28122479 
https://docfusionlon.amec.com/URLServer/?Server=ixa-aps24.3000 <https://docfusionlon.amec.com/URLServer/?Server=ixa-aps24.3000&ID=6b862c94fe5f8a5589942326e59b28a06f88c6f0> &ID=6b862c94fe5f8a5589942326e59b28a06f88c6f0 
https://docfusionlon.amec.com/URLServer/?Server=ixa-aps24.3000 <https://docfusionlon.amec.com/URLServer/?Server=ixa-aps24.3000&ID=bb8d14e1f329e8528b230153fcea50417617dda2> &ID=bb8d14e1f329e8528b230153fcea50417617dda2 
https://docfusionlon.amec.com/URLServer/?Server=ixa-aps24.3000 <https://docfusionlon.amec.com/URLServer/?Server=ixa-aps24.3000&ID=035f43199e0940aa65433887cf229f42922bb9fe> &ID=035f43199e0940aa65433887cf229f42922bb9fe 
https://docfusionlon.amec.com/URLServer/?Server=ixa-aps24.3000 <https://docfusionlon.amec.com/URLServer/?Server=ixa-aps24.3000&ID=e19bcd1f10512c4f63447ded6a68dae2d481a217> &ID=e19bcd1f10512c4f63447ded6a68dae2d481a217 
https://docfusionlon.amec.com/URLServer/?Server=ixa-aps24.3000 <https://docfusionlon.amec.com/URLServer/?Server=ixa-aps24.3000&ID=4b3ba836db3d23bf08ae069af6c72afb490298fd> &ID=4b3ba836db3d23bf08ae069af6c72afb490298fd 
https://docfusionlon.amec.com/URLServer/?Server=ixa-aps24.3000 <https://docfusionlon.amec.com/URLServer/?Server=ixa-aps24.3000&ID=b0e618817256a4503f37191259387083c90a4571> &ID=b0e618817256a4503f37191259387083c90a4571 
Elizabeth Low

