Hi Tony ,
Can you add these to the first MTO I sent.
205 Long Stud Bolt (AS) ASTM A320-L7 HDG Nuts ASTM A194-4 HDG
023-PSV040
PB00224
#N/A
110 Long Stud Bolt (AS) ASTM A320-L7 HDG Nuts ASTM A194-4 HDG
023-PSV040
PB00089
#N/A
130 Long Stud Bolt (AS) ASTM A320-L7 HDG Nuts ASTM A194-4 HDG
023-HV002
PB00153
#N/A

