Profane word,Occurrences,Random Examples
*%@&^/*,12,sit sht shet oob fuc* fu*k fu** f**c f*** **** boob,boob sit sht shet oob fuc* fu*k fu** f**c f*** ****
boob,4,sit sht shet oob fuc* fu*k fu** f**c f*** **** boob,boob sit sht shet oob fuc* fu*k fu** f**c f*** ****
shit,4,sit sht shet oob fuc* fu*k fu** f**c f*** **** boob,boob sit sht shet oob fuc* fu*k fu** f**c f*** ****
erotic,4,auto eroti*,***o erotic
negro,2,auto eroti*
fuck,2,sit sht shet oob fuc* fu*k fu** f**c f*** **** boob,boob sit sht shet oob fuc* fu*k fu** f**c f*** ****
shitty,1,shitty
